'1', 'add_test'
'1', 'order_up'
'1', 'order_down'
'1', 'create_link_token'
'1', 'copy_test'

'8', 'copy_question'
'8', 'save_test'
'8', 'order_up'
'8', 'order_down'

'9', 'save_score_details'
'9', 'save_question'
'9', 'save_video'
'9', 'copy_score_item'
'9', 'get_score_details'
'9', 'create_question'

'11', 'save_user_score'
'11', 'save_user_score_comment'

'3', 'sort_users_list'
'3', 'assign_users_sims'
'3', 'check_user_tested'

'12', 'save_user_data'
'12', 'save_current_user_sim'
'12', 'get_user_questions'

'4', 'update_link_token_data'
'4', 'remove_invite_token'
'4', 'create_link_token'

'5', 'save_admin_settings'
'5', 'admin_password_check'
'5', 'change_admin_password'
'5', 'leave_admin_panel'